---
http_interactions:
- request:
    method: get
    uri: http://localhost:3002/api/as/v1/engines/videogames/logs/api/?filters%5Bdate%5D%5Bfrom%5D=2020-10-01T00:00:00%2B00:00&filters%5Bdate%5D%5Bto%5D=2020-11-05T00:00:00%2B00:00
    body:
      encoding: UTF-8
      string: "{}"
    headers:
      User-Agent:
      - 'elastic-enteprise-search-ruby/0.0.1 (RUBY_VERSION: 2.7.1; linux x86_64; elasticsearch-transport:
        7.9.0)'
      Content-Type:
      - application/json
      Authorization:
      - Bearer api_key
      Accept-Encoding:
      - gzip;q=1.0,deflate;q=0.6,identity;q=0.3
      Accept:
      - "*/*"
  response:
    status:
      code: 200
      message: OK
    headers:
      X-Frame-Options:
      - SAMEORIGIN
      X-Xss-Protection:
      - 1; mode=block
      X-Content-Type-Options:
      - nosniff
      X-App-Search-Version:
      - 7.10.0
      Content-Type:
      - application/json;charset=utf-8
      Vary:
      - Origin
      Etag:
      - W/"46f5eff6326a14fda4ffa9d26388e19a"
      Cache-Control:
      - max-age=0, private, must-revalidate
      X-Request-Id:
      - c729ae2c-83a5-408a-9eb5-592bbf2c20b6
      X-Runtime:
      - '0.025284'
      Transfer-Encoding:
      - chunked
      Server:
      - Jetty(9.4.30.v20200611)
    body:
      encoding: UTF-8
      string: '{"results":[{"timestamp":"2020-11-03T22:57:17Z","request_body":"[{\"name\":\"Super
        Lorenzo Bros\",\"year\":1985},{\"name\":\"Pack-Man\",\"year\":1980},{\"name\":\"Galaxxian\",\"year\":1979},{\"name\":\"Audiovisual,
        the hedgehog\",\"year\":\"1991\"}]","full_request_path":"/api/as/v1/engines/videogames/documents","user_agent":"elastic-enteprise-search-ruby/0.0.1
        (RUBY_VERSION: 2.7.1; linux x86_64; elasticsearch-transport: 8.0.0.pre)","response_body":"[{\"id\":\"doc-5fa1e04d389ab9c9bb5be384\",\"errors\":[]},{\"id\":\"doc-5fa1e04d389ab9c9bb5be385\",\"errors\":[]},{\"id\":\"doc-5fa1e04d389ab9c9bb5be386\",\"errors\":[]},{\"id\":\"doc-5fa1e04d389ab9c9bb5be387\",\"errors\":[]}]","http_method":"POST","status":200,"path":null},{"timestamp":"2020-11-03T22:57:18Z","request_body":"{\"query\":\"Pack-Man\"}","full_request_path":"/api/as/v1/engines/videogames/search","user_agent":"elastic-enteprise-search-ruby/0.0.1
        (RUBY_VERSION: 2.7.1; linux x86_64; elasticsearch-transport: 8.0.0.pre)","response_body":"{\"meta\":{\"alerts\":[],\"warnings\":[],\"page\":{\"current\":1,\"total_pages\":0,\"total_results\":0,\"size\":10},\"engine\":{\"name\":\"videogames\",\"type\":\"default\"},\"request_id\":\"af52a7f1-aa18-4f24-9545-19c18c3bfb00\"},\"results\":[]}","http_method":"POST","status":200,"path":null},{"timestamp":"2020-11-03T22:58:58Z","request_body":"{\"query\":\"Pack-Man\"}","full_request_path":"/api/as/v1/engines/videogames/search","user_agent":"elastic-enteprise-search-ruby/0.0.1
        (RUBY_VERSION: 2.7.1; linux x86_64; elasticsearch-transport: 8.0.0.pre)","response_body":"{\"meta\":{\"alerts\":[],\"warnings\":[],\"page\":{\"current\":1,\"total_pages\":1,\"total_results\":1,\"size\":10},\"engine\":{\"name\":\"videogames\",\"type\":\"default\"},\"request_id\":\"435a5809-d036-4d78-9199-58d99209f3fb\"},\"results\":[{\"name\":{\"raw\":\"Pack-Man\"},\"year\":{\"raw\":\"1980\"},\"_meta\":{\"id\":\"doc-5fa1e04d389ab9c9bb5be385\",\"engine\":\"videogames\",\"score\":1.9132978},\"id\":{\"raw\":\"doc-5fa1e04d389ab9c9bb5be385\"}}]}","http_method":"POST","status":200,"path":null},{"timestamp":"2020-11-04T15:41:30Z","request_body":"{}","full_request_path":"/api/as/v1/engines/videogames/documents?id=176&name=test","user_agent":"elastic-enteprise-search-ruby/0.0.1
        (RUBY_VERSION: 2.7.1; linux x86_64; elasticsearch-transport: 8.0.0.pre)","response_body":"{\"errors\":[\"JSON
        must not be empty\"]}","http_method":"POST","status":400,"path":null},{"timestamp":"2020-11-04T15:41:38Z","request_body":"{\"id\":176,\"name\":\"test\"}","full_request_path":"/api/as/v1/engines/videogames/documents","user_agent":"elastic-enteprise-search-ruby/0.0.1
        (RUBY_VERSION: 2.7.1; linux x86_64; elasticsearch-transport: 8.0.0.pre)","response_body":"[{\"id\":\"176\",\"errors\":[]}]","http_method":"POST","status":200,"path":null},{"timestamp":"2020-11-04T15:44:12Z","request_body":"{}","full_request_path":"/api/as/v1/engines/videogames/search?query=fernando","user_agent":"elastic-enteprise-search-ruby/0.0.1
        (RUBY_VERSION: 2.7.1; linux x86_64; elasticsearch-transport: 8.0.0.pre)","response_body":"{\"meta\":{\"alerts\":[],\"warnings\":[],\"page\":{\"current\":1,\"total_pages\":0,\"total_results\":0,\"size\":10},\"engine\":{\"name\":\"videogames\",\"type\":\"default\"},\"request_id\":\"ef7980cd-08f3-48fb-b8a5-851f03e9ec28\"},\"results\":[]}","http_method":"POST","status":200,"path":null},{"timestamp":"2020-11-04T15:44:25Z","request_body":"{\"query\":\"\",\"result_fields\":{\"name\":{\"snippet\":{\"size\":300,\"fallback\":true}},\"year\":{\"snippet\":{\"size\":300,\"fallback\":true}}},\"sort\":{\"id\":\"desc\"},\"page\":{\"size\":20,\"current\":1}}","full_request_path":"/api/as/v1/engines/videogames/search.json","user_agent":"Mozilla/5.0
        (X11; Ubuntu; Linux x86_64; rv:78.0) Gecko/20100101 Firefox/78.0","response_body":"{\"meta\":{\"alerts\":[],\"warnings\":[],\"page\":{\"current\":1,\"total_pages\":1,\"total_results\":5,\"size\":20},\"engine\":{\"name\":\"videogames\",\"type\":\"default\"},\"request_id\":\"dec6b6ef-d400-42f3-9a9a-0375e1a67a97\"},\"results\":[{\"name\":{\"snippet\":\"Audiovisual,
        the hedgehog\"},\"year\":{\"snippet\":\"1991\"},\"_meta\":{\"id\":\"doc-5fa1e04d389ab9c9bb5be387\",\"engine\":\"videogames\",\"score\":null},\"id\":{\"raw\":\"doc-5fa1e04d389ab9c9bb5be387\"}},{\"name\":{\"snippet\":\"Galaxxian\"},\"year\":{\"snippet\":\"1979\"},\"_meta\":{\"id\":\"doc-5fa1e04d389ab9c9bb5be386\",\"engine\":\"videogames\",\"score\":null},\"id\":{\"raw\":\"doc-5fa1e04d389ab9c9bb5be386\"}},{\"name\":{\"snippet\":\"Pack-Man\"},\"year\":{\"snippet\":\"1980\"},\"_meta\":{\"id\":\"doc-5fa1e04d389ab9c9bb5be385\",\"engine\":\"videogames\",\"score\":null},\"id\":{\"raw\":\"doc-5fa1e04d389ab9c9bb5be385\"}},{\"name\":{\"snippet\":\"Super
        Lorenzo Bros\"},\"year\":{\"snippet\":\"1985\"},\"_meta\":{\"id\":\"doc-5fa1e04d389ab9c9bb5be384\",\"engine\":\"videogames\",\"score\":null},\"id\":{\"raw\":\"doc-5fa1e04d389ab9c9bb5be384\"}},{\"name\":{\"snippet\":\"test\"},\"_meta\":{\"id\":\"176\",\"engine\":\"videogames\",\"score\":null},\"id\":{\"raw\":\"176\"}}]}","http_method":"POST","status":200,"path":null},{"timestamp":"2020-11-04T15:44:30Z","request_body":"{}","full_request_path":"/api/as/v1/engines/videogames/search?query=pack","user_agent":"elastic-enteprise-search-ruby/0.0.1
        (RUBY_VERSION: 2.7.1; linux x86_64; elasticsearch-transport: 8.0.0.pre)","response_body":"{\"meta\":{\"alerts\":[],\"warnings\":[],\"page\":{\"current\":1,\"total_pages\":1,\"total_results\":1,\"size\":10},\"engine\":{\"name\":\"videogames\",\"type\":\"default\"},\"request_id\":\"f75ecdff-cb85-4327-bfe1-b64598a8c1bd\"},\"results\":[{\"name\":{\"raw\":\"Pack-Man\"},\"year\":{\"raw\":\"1980\"},\"_meta\":{\"id\":\"doc-5fa1e04d389ab9c9bb5be385\",\"engine\":\"videogames\",\"score\":1.1594962},\"id\":{\"raw\":\"doc-5fa1e04d389ab9c9bb5be385\"}}]}","http_method":"POST","status":200,"path":null},{"timestamp":"2020-11-04T15:44:35Z","request_body":"{}","full_request_path":"/api/as/v1/engines/videogames/search?query=pack","user_agent":"elastic-enteprise-search-ruby/0.0.1
        (RUBY_VERSION: 2.7.1; linux x86_64; elasticsearch-transport: 8.0.0.pre)","response_body":"{\"meta\":{\"alerts\":[],\"warnings\":[],\"page\":{\"current\":1,\"total_pages\":1,\"total_results\":1,\"size\":10},\"engine\":{\"name\":\"videogames\",\"type\":\"default\"},\"request_id\":\"9709ef82-39f6-4289-88de-fec36e9771c3\"},\"results\":[{\"name\":{\"raw\":\"Pack-Man\"},\"year\":{\"raw\":\"1980\"},\"_meta\":{\"id\":\"doc-5fa1e04d389ab9c9bb5be385\",\"engine\":\"videogames\",\"score\":1.1594962},\"id\":{\"raw\":\"doc-5fa1e04d389ab9c9bb5be385\"}}]}","http_method":"POST","status":200,"path":null},{"timestamp":"2020-11-04T15:44:38Z","request_body":"{}","full_request_path":"/api/as/v1/engines/videogames/search?query=pack","user_agent":"elastic-enteprise-search-ruby/0.0.1
        (RUBY_VERSION: 2.7.1; linux x86_64; elasticsearch-transport: 8.0.0.pre)","response_body":"{\"meta\":{\"alerts\":[],\"warnings\":[],\"page\":{\"current\":1,\"total_pages\":1,\"total_results\":1,\"size\":10},\"engine\":{\"name\":\"videogames\",\"type\":\"default\"},\"request_id\":\"f3fcc54d-68eb-4268-8b1d-3473db1ee85f\"},\"results\":[{\"name\":{\"raw\":\"Pack-Man\"},\"year\":{\"raw\":\"1980\"},\"_meta\":{\"id\":\"doc-5fa1e04d389ab9c9bb5be385\",\"engine\":\"videogames\",\"score\":1.1594962},\"id\":{\"raw\":\"doc-5fa1e04d389ab9c9bb5be385\"}}]}","http_method":"POST","status":200,"path":null}],"meta":{"query":"","filters":{"date":{"from":"2020-10-01T00:00:00+00:00","to":"2020-11-05T00:00:00+00:00"}},"sort_direction":"asc","page":{"current":1,"total_pages":9,"total_results":83,"size":10}}}'
    http_version: 
  recorded_at: Wed, 04 Nov 2020 20:11:36 GMT
recorded_with: VCR 3.0.3
